{
  "info": {
    "author": "Jerel Unruh",
    "author_email": "UNKNOWN",
    "bugtrack_url": "",
    "classifiers": [
      "Development Status :: 5 - Production/Stable",
      "Environment :: Web Environment",
      "Framework :: Django",
      "Intended Audience :: Developers",
      "License :: OSI Approved :: MIT License",
      "Operating System :: OS Independent",
      "Programming Language :: Python",
      "Programming Language :: Python :: 2",
      "Programming Language :: Python :: 2.7",
      "Programming Language :: Python :: 3",
      "Programming Language :: Python :: 3.3",
      "Programming Language :: Python :: 3.4",
      "Programming Language :: Python :: 3.5",
      "Topic :: Internet :: WWW/HTTP",
      "Topic :: Software Development :: Libraries :: Application Frameworks",
      "Topic :: Software Development :: Libraries :: Python Modules"
    ],
    "description": "====================================\nJSON API and Django Rest Framework\n====================================\n\n.. image:: https://travis-ci.org/django-json-api/django-rest-framework-json-api.svg?branch=develop\n   :target: https://travis-ci.org/django-json-api/django-rest-framework-json-api\n\n.. image:: https://readthedocs.org/projects/django-rest-framework-json-api/badge/?version=latest\n   :alt: Read the docs\n   :target: http://django-rest-framework-json-api.readthedocs.org/\n\n.. image:: https://codeclimate.com/github/django-json-api/django-rest-framework-json-api/badges/gpa.svg\n   :target: https://codeclimate.com/github/django-json-api/django-rest-framework-json-api\n   :alt: Code Climate\n\n.. image:: https://badges.gitter.im/Join%20Chat.svg\n   :alt: Join the chat at https://gitter.im/django-json-api/django-rest-framework-json-api\n   :target: https://gitter.im/django-json-api/django-rest-framework-json-api\n\n\nDocumentation: http://django-rest-framework-json-api.readthedocs.org/\n\nLive demo (resets every hour): http://json-api.jerel.co/\n\nFormat specification: http://jsonapi.org/format/\n\n\nBy default, Django REST Framework will produce a response like::\n\n    {\n        \"count\": 20,\n        \"next\": \"http://example.com/api/1.0/identities/?page=3\",\n        \"previous\": \"http://example.com/api/1.0/identities/?page=1\",\n        \"results\": [{\n            \"id\": 3,\n            \"username\": \"john\",\n            \"full_name\": \"John Coltrane\"\n        }]\n    }\n\n\nHowever, for an ``identity`` model in JSON API format the response should look\nlike the following::\n\n    {\n        \"links\": {\n            \"prev\": \"http://example.com/api/1.0/identities\",\n            \"self\": \"http://example.com/api/1.0/identities?page=2\",\n            \"next\": \"http://example.com/api/1.0/identities?page=3\",\n        },\n        \"data\": [{\n            \"type\": \"identities\",\n            \"id\": 3,\n            \"attributes\": {\n                \"username\": \"john\",\n                \"full-name\": \"John Coltrane\"\n            }\n        }],\n        \"meta\": {\n            \"pagination\": {\n              \"count\": 20\n            }\n        }\n    }\n\n\n------------\nRequirements\n------------\n\n1. Django\n2. Django REST Framework\n\n------------\nInstallation\n------------\n\nFrom PyPI\n^^^^^^^^^\n\n::\n\n    $ pip install djangorestframework-jsonapi\n\n\nFrom Source\n^^^^^^^^^^^\n\n::\n\n    $ git clone https://github.com/django-json-api/django-rest-framework-json-api.git\n    $ cd django-rest-framework-json-api && pip install -e .\n\n\nRunning the example app\n^^^^^^^^^^^^^^^^^^^^^^^\n\n::\n\n    $ git clone https://github.com/django-json-api/django-rest-framework-json-api.git\n    $ cd django-rest-framework-json-api && pip install -e .\n    $ django-admin.py runserver --settings=example.settings\n\nBrowse to http://localhost:8000\n\n\nRunning Tests\n^^^^^^^^^^^^^\n\nIt is recommended to create a virtualenv for testing. Assuming it is already \ninstalled and activated:\n\n::\n\n    $ pip install -e .\n    $ pip install -r requirements-development.txt\n    $ py.test\n\n\n-----\nUsage\n-----\n\n\n``rest_framework_json_api`` assumes you are using class-based views in Django\nRest Framework.\n\n\nSettings\n^^^^^^^^\n\nOne can either add ``rest_framework_json_api.parsers.JSONParser`` and\n``rest_framework_json_api.renderers.JSONRenderer`` to each ``ViewSet`` class, or\noverride ``settings.REST_FRAMEWORK``\n\n::\n\n    REST_FRAMEWORK = {\n        'PAGE_SIZE': 10,\n        'EXCEPTION_HANDLER': 'rest_framework_json_api.exceptions.exception_handler',\n        'DEFAULT_PAGINATION_CLASS':\n            'rest_framework_json_api.pagination.PageNumberPagination',\n        'DEFAULT_PARSER_CLASSES': (\n            'rest_framework_json_api.parsers.JSONParser',\n            'rest_framework.parsers.FormParser',\n            'rest_framework.parsers.MultiPartParser'\n        ),\n        'DEFAULT_RENDERER_CLASSES': (\n            'rest_framework_json_api.renderers.JSONRenderer',\n            'rest_framework.renderers.BrowsableAPIRenderer',\n        ),\n        'DEFAULT_METADATA_CLASS': 'rest_framework_json_api.metadata.JSONAPIMetadata',\n    }\n\nIf ``PAGINATE_BY`` is set the renderer will return a ``meta`` object with\nrecord count and a ``links`` object with the next and previous links. Pages\ncan be specified with the ``page`` GET parameter.\n\nThis package provides much more including automatic inflection of JSON keys, extra top level data (using nested serializers), relationships, links, and handy shortcuts like MultipleIDMixin. Read more at http://django-rest-framework-json-api.readthedocs.org/",
    "docs_url": null,
    "download_url": "UNKNOWN",
    "downloads": {
      "last_day": 0,
      "last_month": 0,
      "last_week": 0
    },
    "home_page": "https://github.com/django-json-api/django-rest-framework-json-api",
    "keywords": null,
    "license": "MIT",
    "maintainer": null,
    "maintainer_email": null,
    "name": "djangorestframework-jsonapi",
    "platform": "UNKNOWN",
    "project_url": "https://pypi.org/project/djangorestframework-jsonapi/",
    "release_url": "https://pypi.org/project/djangorestframework-jsonapi/2.2.0/",
    "requires_dist": [],
    "requires_python": null,
    "summary": "A Django REST framework API adapter for the json-api spec.",
    "version": "2.2.0"
  },
  "releases": {
    "2.0.0": [
      {
        "comment_text": "",
        "digests": {
          "md5": "94e6a0d59823cb4bc7dd4ecd0c76cb62",
          "sha256": "a74c4dc87c9b3e022426e9d5a8089309c80b1104a57b50ea3655176f687d0eab"
        },
        "downloads": -1,
        "filename": "djangorestframework-jsonapi-2.0.0.tar.gz",
        "has_sig": true,
        "md5_digest": "94e6a0d59823cb4bc7dd4ecd0c76cb62",
        "packagetype": "sdist",
        "python_version": "source",
        "size": 36855,
        "upload_time": "2016-04-29T18:13:14",
        "url": "https://files.pythonhosted.org/packages/b0/c5/697be62c2e648d900170ff46b8b2d448c3356707d7fba5e3967fa1901163/djangorestframework-jsonapi-2.0.0.tar.gz"
      }
    ],
    "2.0.0-alpha": [
      {
        "comment_text": "",
        "digests": {
          "md5": "1b2862b1e33df1a2b7402d025b47d123",
          "sha256": "6634dd0f82442c4f6cd07f4588258d4e1e6ef3210ddb3cc5cf1f60af9c6292a1"
        },
        "downloads": -1,
        "filename": "djangorestframework-jsonapi-2.0.0-alpha.tar.gz",
        "has_sig": true,
        "md5_digest": "1b2862b1e33df1a2b7402d025b47d123",
        "packagetype": "sdist",
        "python_version": "source",
        "size": 18263,
        "upload_time": "2015-07-20T23:41:55",
        "url": "https://files.pythonhosted.org/packages/ff/4c/3eeee914a1f51c4ff9bac5ab7a09206fa6be131116cd786a7baee3f81ea0/djangorestframework-jsonapi-2.0.0-alpha.tar.gz"
      }
    ],
    "2.0.0-alpha.1": [
      {
        "comment_text": "",
        "digests": {
          "md5": "1ae5b2664c3d72704004d13fa0599b4b",
          "sha256": "8884cc0e633dc5f04715816ac16c95c9b2d79f1f996ee773f41ffb12bb82d10f"
        },
        "downloads": -1,
        "filename": "djangorestframework-jsonapi-2.0.0-alpha.1.tar.gz",
        "has_sig": true,
        "md5_digest": "1ae5b2664c3d72704004d13fa0599b4b",
        "packagetype": "sdist",
        "python_version": "source",
        "size": 23653,
        "upload_time": "2015-07-25T04:11:10",
        "url": "https://files.pythonhosted.org/packages/14/7b/c9731eace34b0560342af5eb749daf107cc4ef3035e99655174d896dc8c0/djangorestframework-jsonapi-2.0.0-alpha.1.tar.gz"
      }
    ],
    "2.0.0-alpha.2": [
      {
        "comment_text": "",
        "digests": {
          "md5": "0d9bc9bbdf77334177dd85fbb1605787",
          "sha256": "c388578650cc636185b9554b14ef50e8542f5a76f90726c6d5080ccb47508d48"
        },
        "downloads": -1,
        "filename": "djangorestframework-jsonapi-2.0.0-alpha.2.tar.gz",
        "has_sig": true,
        "md5_digest": "0d9bc9bbdf77334177dd85fbb1605787",
        "packagetype": "sdist",
        "python_version": "source",
        "size": 22115,
        "upload_time": "2015-08-13T22:08:55",
        "url": "https://files.pythonhosted.org/packages/f2/e0/92652ba3267c607396218fcacf30aff13f8cfb20274e828b72b979bcafe7/djangorestframework-jsonapi-2.0.0-alpha.2.tar.gz"
      }
    ],
    "2.0.0-alpha.3": [
      {
        "comment_text": "",
        "digests": {
          "md5": "1d49a71c2e2c2e5bb7a3d25bb5629687",
          "sha256": "c791312913842d27686fd86fccc92045765913593df7368b930e16ed5b06f592"
        },
        "downloads": -1,
        "filename": "djangorestframework-jsonapi-2.0.0-alpha.3.tar.gz",
        "has_sig": true,
        "md5_digest": "1d49a71c2e2c2e5bb7a3d25bb5629687",
        "packagetype": "sdist",
        "python_version": "source",
        "size": 37889,
        "upload_time": "2015-09-25T13:16:54",
        "url": "https://files.pythonhosted.org/packages/75/9b/c727cbeefc6182dc62de5b35fe76dad5443502d7dd29aaff114c9c9759d9/djangorestframework-jsonapi-2.0.0-alpha.3.tar.gz"
      }
    ],
    "2.0.0-beta.1": [
      {
        "comment_text": "",
        "digests": {
          "md5": "7e23baf2e60f0a3ea8be2146bfedd87e",
          "sha256": "16749fc70f36fec78ea54884151402534bb11385dbb8611bf8dd8e2b7b4600dd"
        },
        "downloads": -1,
        "filename": "djangorestframework-jsonapi-2.0.0-beta.1.tar.gz",
        "has_sig": true,
        "md5_digest": "7e23baf2e60f0a3ea8be2146bfedd87e",
        "packagetype": "sdist",
        "python_version": "source",
        "size": 32520,
        "upload_time": "2016-01-07T15:17:59",
        "url": "https://files.pythonhosted.org/packages/b0/61/f06640da457bbb6127750c8ca428f95cf25bae379cdd57a421cab96001b2/djangorestframework-jsonapi-2.0.0-beta.1.tar.gz"
      }
    ],
    "2.0.0-beta.2": [
      {
        "comment_text": "",
        "digests": {
          "md5": "bb3bc7fffb288ff9847bbd07fe4f4605",
          "sha256": "3ef6d69c171edd1acad9ecd3886495512399445718c062a33088370ff743c0c4"
        },
        "downloads": -1,
        "filename": "djangorestframework-jsonapi-2.0.0-beta.2.tar.gz",
        "has_sig": true,
        "md5_digest": "bb3bc7fffb288ff9847bbd07fe4f4605",
        "packagetype": "sdist",
        "python_version": "source",
        "size": 33866,
        "upload_time": "2016-02-11T17:49:42",
        "url": "https://files.pythonhosted.org/packages/3e/4d/4dbe7eda555bbb246e6fa1fcd3957aa6c10d7a16a77769abf36677cdfc04/djangorestframework-jsonapi-2.0.0-beta.2.tar.gz"
      }
    ],
    "2.0.1": [
      {
        "comment_text": "",
        "digests": {
          "md5": "dc648c42733266c08ccfd986c5fa5a0e",
          "sha256": "19880e731c91a6e12054da9031399bd3f03510ba1b01efe0c2c1cecc6efce1fa"
        },
        "downloads": -1,
        "filename": "djangorestframework-jsonapi-2.0.1.tar.gz",
        "has_sig": true,
        "md5_digest": "dc648c42733266c08ccfd986c5fa5a0e",
        "packagetype": "sdist",
        "python_version": "source",
        "size": 37887,
        "upload_time": "2016-05-02T15:57:26",
        "url": "https://files.pythonhosted.org/packages/58/99/3af8fb83359952c7c5daa659e477be89b0b0e2c4ecda796504bf428adaf8/djangorestframework-jsonapi-2.0.1.tar.gz"
      }
    ],
    "2.1.0": [
      {
        "comment_text": "",
        "digests": {
          "md5": "3904a84b25d615b5e6ef2907d3e8e106",
          "sha256": "1ea820403b02cc1a9e08191f765907dcd18a05522eaf60653f4221fd0d2a324a"
        },
        "downloads": -1,
        "filename": "djangorestframework-jsonapi-2.1.0.tar.gz",
        "has_sig": true,
        "md5_digest": "3904a84b25d615b5e6ef2907d3e8e106",
        "packagetype": "sdist",
        "python_version": "source",
        "size": 39220,
        "upload_time": "2016-08-18T17:31:01",
        "url": "https://files.pythonhosted.org/packages/89/1e/2d79e353c55f23430b8dcbcad51d0bfaa69a74b375263d66c8ceb299379b/djangorestframework-jsonapi-2.1.0.tar.gz"
      }
    ],
    "2.1.1": [
      {
        "comment_text": "",
        "digests": {
          "md5": "acc4ac16618afc3e86799e6a16a35bb1",
          "sha256": "e50e424694ee49d643ed068db981bc41e74839f8377ad9177071350bc20f4577"
        },
        "downloads": -1,
        "filename": "djangorestframework-jsonapi-2.1.1.tar.gz",
        "has_sig": true,
        "md5_digest": "acc4ac16618afc3e86799e6a16a35bb1",
        "packagetype": "sdist",
        "python_version": "source",
        "size": 40043,
        "upload_time": "2016-09-26T18:19:37",
        "url": "https://files.pythonhosted.org/packages/41/5a/36fed7c25951fc85d7d21c0253af170f51fc7dfada2c3c012bbce318f8ed/djangorestframework-jsonapi-2.1.1.tar.gz"
      }
    ],
    "2.2.0": [
      {
        "comment_text": "",
        "digests": {
          "md5": "81eb8b152f2048b05cb56fa223a58a88",
          "sha256": "c2fd9a35ca267f3839d8ec369b5ed44b827fe87c04aeb9ff9629d8a778e58e40"
        },
        "downloads": -1,
        "filename": "djangorestframework-jsonapi-2.2.0.tar.gz",
        "has_sig": true,
        "md5_digest": "81eb8b152f2048b05cb56fa223a58a88",
        "packagetype": "sdist",
        "python_version": "source",
        "size": 41111,
        "upload_time": "2017-04-21T22:27:45",
        "url": "https://files.pythonhosted.org/packages/a1/28/f1c4db991a7d2884dcd3954c94c692686e17c0c02b1569c3e79c00b83b92/djangorestframework-jsonapi-2.2.0.tar.gz"
      }
    ]
  },
  "urls": [
    {
      "comment_text": "",
      "digests": {
        "md5": "81eb8b152f2048b05cb56fa223a58a88",
        "sha256": "c2fd9a35ca267f3839d8ec369b5ed44b827fe87c04aeb9ff9629d8a778e58e40"
      },
      "downloads": -1,
      "filename": "djangorestframework-jsonapi-2.2.0.tar.gz",
      "has_sig": true,
      "md5_digest": "81eb8b152f2048b05cb56fa223a58a88",
      "packagetype": "sdist",
      "python_version": "source",
      "size": 41111,
      "upload_time": "2017-04-21T22:27:45",
      "url": "https://files.pythonhosted.org/packages/a1/28/f1c4db991a7d2884dcd3954c94c692686e17c0c02b1569c3e79c00b83b92/djangorestframework-jsonapi-2.2.0.tar.gz"
    }
  ]
}